Fit aggregate data using the bobyqa algorithm with Monte Carlo updates — timedbobyqa • admr
…
# Run optimization
result <- timedbobyqa(opts$pt, opts, examplomycin_aggregated)
#> Iteration: 50 - NLL: -1842.696 
#> Iteration: 100 - NLL: -1844.712 
#> Iteration: 150 - NLL: -1845.05 
#> Iteration: 200 - NLL: -1845.218 
#> Iteration: 250 - NLL: -1845.241 
#> Iteration: 300 - NLL: -1845.254 
#> Iteration: 350 - NLL: -1845.273 
#> Iteration: 400 - NLL: -1845.281 
#> Iteration: 450 - NLL: -1845.284 
#> Iteration: 500 - NLL: -1845.288 
#> Iteration: 550 - NLL: -1845.29 
print(result)
#> # A tibble: 565 × 4
#>    p             nll time                 iter
#>    <list>      <dbl> <dttm>              <dbl>
#>  1 <dbl [11]> -1840. 2025-04-03 09:11:34     1
#>  2 <dbl [11]> -1840. 2025-04-03 09:11:34     2
#>  3 <dbl [11]> -1840. 2025-04-03 09:11:34     3
#>  4 <dbl [11]> 14057. 2025-04-03 09:11:34     4
#>  5 <dbl [11]>  5029. 2025-04-03 09:11:34     5
#>  6 <dbl [11]>   227. 2025-04-03 09:11:35     6
#>  7 <dbl [11]>  -417. 2025-04-03 09:11:35     7
#>  8 <dbl [11]>  -413. 2025-04-03 09:11:35     8
#>  9 <dbl [11]> -1779. 2025-04-03 09:11:35     9
#> 10 <dbl [11]> -1800. 2025-04-03 09:11:35    10
#> # ℹ 555 more rows
…
